dev_pushbutton.c:51:25:pushbtn_check_event	24	static
dev_pushbutton.c:115:9:dev_pushbtn_check_nvm_variables	16	static
dev_pushbutton.c:151:6:dev_pushbtn_by_reset	16	static
dev_pushbutton.c:165:6:dev_pushbtn_init_persistent	16	static
dev_pushbutton.c:189:25:dev_pushbtn_event_action	16	static
dev_pushbutton.c:241:25:dev_pushbtn_interrupt	40	static
dev_pushbutton.c:383:18:dev_pushbtn_eventinfo	48	static
dev_pushbutton.c:502:18:dev_pushbtn_reactioncode	24	static
dev_pushbutton.c:561:18:dev_pushbtn_opcode	24	static
dev_pushbutton.c:637:9:dev_pushbtn_get_error	24	static
dev_pushbutton.c:655:25:dev_pushbtn_cmd	24	static
dev_pushbutton.c:674:18:dev_pushbtn_process_forward	72	static
dev_pushbutton.c:815:6:dev_pushbtn_timingHelper	128	static
